chr12	2000000	3020000
chr12	2000000	3020000
chr12	2000000	3020000
chr12	2000000	3020000
chr12	2000000	3020000
chr12	2000000	3020000
chr12	2000000	3020000
chr12	2000000	3020000
chr12	1000000	4020000
chr12	1000000	4020000
chr12	1000000	4020000
chr12	1000000	4020000
chr12	1000000	4020000
chr12	1000000	4020000
chr12	1000000	4020000
chr12	1000000	4020000
chr12	1000000	4020000
chr12	1000000	4020000
chr12	1000000	4020000
chr12	1000000	4020000
chr12	2000000	5020000
chr12	2000000	5020000
chr12	2000000	5020000
chr12	2000000	5020000
chr12	2000000	5020000
chr12	2000000	5020000
chr12	2000000	5020000
chr12	2000000	5020000
chr12	2000000	5020000
chr12	2000000	5020000
chr12	2000000	5020000
chr12	2000000	5020000
chr12	20000000	23020000
chr12	20000000	23020000
chr12	20000000	23020000
chr12	20000000	23020000
chr12	21000000	24020000
chr12	21000000	24020000
chr12	21000000	24020000
chr12	21000000	24020000
chr12	21000000	24020000
chr12	21000000	24020000
chr12	21000000	24020000
chr12	21000000	24020000
chr12	22000000	25020000
chr12	22000000	25020000
chr12	22000000	25020000
chr12	22000000	25020000
chr12	22000000	25020000
chr12	22000000	25020000
chr12	22000000	25020000
chr12	22000000	25020000
chr12	23000000	26020000
chr12	23000000	26020000
chr12	23000000	26020000
chr12	23000000	26020000
chr12	23000000	26020000
chr12	23000000	26020000
chr12	23000000	26020000
chr12	23000000	26020000
chr12	53000000	56020000
chr12	53000000	56020000
chr12	53000000	56020000
chr12	53000000	56020000
chr12	54000000	57020000
chr12	54000000	57020000
chr12	54000000	57020000
chr12	54000000	57020000
chr12	55000000	58020000
chr12	55000000	58020000
chr12	55000000	58020000
chr12	55000000	58020000
chr12	85000000	88020000
chr12	85000000	88020000
chr12	85000000	88020000
chr12	85000000	88020000
chr12	86000000	89020000
chr12	86000000	89020000
chr12	86000000	89020000
chr12	86000000	89020000
chr12	87000000	90020000
chr12	87000000	90020000
chr12	87000000	90020000
chr12	87000000	90020000
chr12	118000000	120129022
chr12	118000000	120129022
chr12	118000000	120129022
chr12	118000000	120129022
chr12	118000000	120129022
chr12	118000000	120129022
chr12	118000000	120129022
chr12	118000000	120129022
chr12	118000000	120129022
chr12	118000000	120129022
chr12	118000000	120129022
chr12	118000000	120129022
