chr11	2000000	3020000
chr11	2000000	3020000
chr11	2000000	3020000
chr11	2000000	3020000
chr11	2000000	3020000
chr11	2000000	3020000
chr11	2000000	3020000
chr11	2000000	3020000
chr11	1000000	4020000
chr11	1000000	4020000
chr11	1000000	4020000
chr11	1000000	4020000
chr11	1000000	4020000
chr11	1000000	4020000
chr11	1000000	4020000
chr11	1000000	4020000
chr11	1000000	4020000
chr11	1000000	4020000
chr11	1000000	4020000
chr11	1000000	4020000
chr11	2000000	5020000
chr11	2000000	5020000
chr11	2000000	5020000
chr11	2000000	5020000
chr11	2000000	5020000
chr11	2000000	5020000
chr11	2000000	5020000
chr11	2000000	5020000
chr11	2000000	5020000
chr11	2000000	5020000
chr11	2000000	5020000
chr11	2000000	5020000
chr11	3000000	6020000
chr11	3000000	6020000
chr11	3000000	6020000
chr11	3000000	6020000
chr11	32000000	35020000
chr11	32000000	35020000
chr11	32000000	35020000
chr11	32000000	35020000
chr11	33000000	36020000
chr11	33000000	36020000
chr11	33000000	36020000
chr11	33000000	36020000
chr11	34000000	37020000
chr11	34000000	37020000
chr11	34000000	37020000
chr11	34000000	37020000
chr11	119000000	122020000
chr11	119000000	122020000
chr11	119000000	122020000
chr11	119000000	122020000
chr11	120000000	122082543
chr11	120000000	122082543
chr11	120000000	122082543
chr11	120000000	122082543
chr11	120000000	122082543
chr11	120000000	122082543
chr11	120000000	122082543
chr11	120000000	122082543
chr11	120000000	122082543
chr11	120000000	122082543
chr11	120000000	122082543
chr11	120000000	122082543
