chr3	2000000	3020000
chr3	2000000	3020000
chr3	2000000	3020000
chr3	2000000	3020000
chr3	2000000	3020000
chr3	2000000	3020000
chr3	2000000	3020000
chr3	2000000	3020000
chr3	1000000	4020000
chr3	1000000	4020000
chr3	1000000	4020000
chr3	1000000	4020000
chr3	1000000	4020000
chr3	1000000	4020000
chr3	1000000	4020000
chr3	1000000	4020000
chr3	1000000	4020000
chr3	1000000	4020000
chr3	1000000	4020000
chr3	1000000	4020000
chr3	2000000	5020000
chr3	2000000	5020000
chr3	2000000	5020000
chr3	2000000	5020000
chr3	2000000	5020000
chr3	2000000	5020000
chr3	2000000	5020000
chr3	2000000	5020000
chr3	2000000	5020000
chr3	2000000	5020000
chr3	2000000	5020000
chr3	2000000	5020000
chr3	13000000	16020000
chr3	13000000	16020000
chr3	13000000	16020000
chr3	13000000	16020000
chr3	14000000	17020000
chr3	14000000	17020000
chr3	14000000	17020000
chr3	14000000	17020000
chr3	15000000	18020000
chr3	15000000	18020000
chr3	15000000	18020000
chr3	15000000	18020000
chr3	38000000	41020000
chr3	38000000	41020000
chr3	38000000	41020000
chr3	38000000	41020000
chr3	39000000	42020000
chr3	39000000	42020000
chr3	39000000	42020000
chr3	39000000	42020000
chr3	40000000	43020000
chr3	40000000	43020000
chr3	40000000	43020000
chr3	40000000	43020000
chr3	96000000	99020000
chr3	96000000	99020000
chr3	96000000	99020000
chr3	96000000	99020000
chr3	97000000	100020000
chr3	97000000	100020000
chr3	97000000	100020000
chr3	97000000	100020000
chr3	98000000	101020000
chr3	98000000	101020000
chr3	98000000	101020000
chr3	98000000	101020000
chr3	111000000	114020000
chr3	111000000	114020000
chr3	111000000	114020000
chr3	111000000	114020000
chr3	111000000	114020000
chr3	111000000	114020000
chr3	111000000	114020000
chr3	111000000	114020000
chr3	112000000	115020000
chr3	112000000	115020000
chr3	112000000	115020000
chr3	112000000	115020000
chr3	112000000	115020000
chr3	112000000	115020000
chr3	112000000	115020000
chr3	112000000	115020000
chr3	113000000	116020000
chr3	113000000	116020000
chr3	113000000	116020000
chr3	113000000	116020000
chr3	113000000	116020000
chr3	113000000	116020000
chr3	113000000	116020000
chr3	113000000	116020000
chr3	129000000	132020000
chr3	129000000	132020000
chr3	129000000	132020000
chr3	129000000	132020000
chr3	130000000	133020000
chr3	130000000	133020000
chr3	130000000	133020000
chr3	130000000	133020000
chr3	131000000	134020000
chr3	131000000	134020000
chr3	131000000	134020000
chr3	131000000	134020000
chr3	157000000	160020000
chr3	157000000	160020000
chr3	157000000	160020000
chr3	157000000	160020000
chr3	158000000	160039680
chr3	158000000	160039680
chr3	158000000	160039680
chr3	158000000	160039680
chr3	158000000	160039680
chr3	158000000	160039680
chr3	158000000	160039680
chr3	158000000	160039680
chr3	158000000	160039680
chr3	158000000	160039680
chr3	158000000	160039680
chr3	158000000	160039680
