chr19	2000000	3020000
chr19	2000000	3020000
chr19	2000000	3020000
chr19	2000000	3020000
chr19	2000000	3020000
chr19	2000000	3020000
chr19	2000000	3020000
chr19	2000000	3020000
chr19	1000000	4020000
chr19	1000000	4020000
chr19	1000000	4020000
chr19	1000000	4020000
chr19	1000000	4020000
chr19	1000000	4020000
chr19	1000000	4020000
chr19	1000000	4020000
chr19	1000000	4020000
chr19	1000000	4020000
chr19	1000000	4020000
chr19	1000000	4020000
chr19	2000000	5020000
chr19	2000000	5020000
chr19	2000000	5020000
chr19	2000000	5020000
chr19	2000000	5020000
chr19	2000000	5020000
chr19	2000000	5020000
chr19	2000000	5020000
chr19	2000000	5020000
chr19	2000000	5020000
chr19	2000000	5020000
chr19	2000000	5020000
chr19	3000000	6020000
chr19	3000000	6020000
chr19	3000000	6020000
chr19	3000000	6020000
chr19	4000000	7020000
chr19	4000000	7020000
chr19	4000000	7020000
chr19	4000000	7020000
chr19	5000000	8020000
chr19	5000000	8020000
chr19	5000000	8020000
chr19	5000000	8020000
chr19	6000000	9020000
chr19	6000000	9020000
chr19	6000000	9020000
chr19	6000000	9020000
chr19	59000000	61431566
chr19	59000000	61431566
chr19	59000000	61431566
chr19	59000000	61431566
chr19	59000000	61431566
chr19	59000000	61431566
chr19	59000000	61431566
chr19	59000000	61431566
chr19	59000000	61431566
chr19	59000000	61431566
chr19	59000000	61431566
chr19	59000000	61431566
