chr16	4000000	6040000
chr16	4000000	6040000
chr16	2000000	8040000
chr16	2000000	8040000
chr16	2000000	8040000
chr16	2000000	8040000
chr16	10000000	16040000
chr16	10000000	16040000
chr16	10000000	16040000
chr16	10000000	16040000
chr16	12000000	18040000
chr16	12000000	18040000
chr16	12000000	18040000
chr16	12000000	18040000
chr16	14000000	20040000
chr16	14000000	20040000
chr16	14000000	20040000
chr16	14000000	20040000
chr16	16000000	22040000
chr16	16000000	22040000
chr16	16000000	22040000
chr16	16000000	22040000
chr16	18000000	24040000
chr16	18000000	24040000
chr16	18000000	24040000
chr16	18000000	24040000
chr16	20000000	26040000
chr16	20000000	26040000
chr16	20000000	26040000
chr16	20000000	26040000
chr16	22000000	28040000
chr16	22000000	28040000
chr16	24000000	30040000
chr16	24000000	30040000
chr16	24000000	30040000
chr16	24000000	30040000
chr16	26000000	32040000
chr16	26000000	32040000
chr16	26000000	32040000
chr16	26000000	32040000
chr16	28000000	34040000
chr16	28000000	34040000
chr16	28000000	34040000
chr16	28000000	34040000
chr16	30000000	36040000
chr16	30000000	36040000
chr16	30000000	36040000
chr16	30000000	36040000
chr16	30000000	36040000
chr16	30000000	36040000
chr16	32000000	38040000
chr16	32000000	38040000
chr16	32000000	38040000
chr16	32000000	38040000
chr16	32000000	38040000
chr16	32000000	38040000
chr16	34000000	40040000
chr16	34000000	40040000
chr16	34000000	40040000
chr16	34000000	40040000
chr16	34000000	40040000
chr16	34000000	40040000
chr16	36000000	42040000
chr16	36000000	42040000
chr16	38000000	44040000
chr16	38000000	44040000
chr16	42000000	48040000
chr16	42000000	48040000
chr16	42000000	48040000
chr16	42000000	48040000
chr16	44000000	50040000
chr16	44000000	50040000
chr16	44000000	50040000
chr16	44000000	50040000
chr16	46000000	52040000
chr16	46000000	52040000
chr16	46000000	52040000
chr16	46000000	52040000
chr16	86000000	90360000
chr16	86000000	90360000
chr16	86000000	90360000
chr16	86000000	90360000
chr16	86000000	90360000
chr16	86000000	90360000
