chr3	4000000	6040000
chr3	4000000	6040000
chr3	2000000	8040000
chr3	2000000	8040000
chr3	2000000	8040000
chr3	2000000	8040000
chr3	86000000	92040000
chr3	86000000	92040000
chr3	86000000	92040000
chr3	86000000	92040000
chr3	86000000	92040000
chr3	86000000	92040000
chr3	88000000	94040000
chr3	88000000	94040000
chr3	88000000	94040000
chr3	88000000	94040000
chr3	88000000	94040000
chr3	88000000	94040000
chr3	90000000	96040000
chr3	90000000	96040000
chr3	90000000	96040000
chr3	90000000	96040000
chr3	90000000	96040000
chr3	90000000	96040000
chr3	92000000	98040000
chr3	92000000	98040000
chr3	92000000	98040000
chr3	92000000	98040000
chr3	92000000	98040000
chr3	92000000	98040000
chr3	192000000	198040000
chr3	192000000	198040000
chr3	192000000	198040000
