chr9	4000000	6040000
chr9	4000000	6040000
chr9	2000000	8040000
chr9	2000000	8040000
chr9	2000000	8040000
chr9	2000000	8040000
chr9	34000000	40040000
chr9	34000000	40040000
chr9	34000000	40040000
chr9	34000000	40040000
chr9	36000000	42040000
chr9	36000000	42040000
chr9	36000000	42040000
chr9	36000000	42040000
chr9	38000000	44040000
chr9	38000000	44040000
chr9	38000000	44040000
chr9	38000000	44040000
chr9	40000000	46040000
chr9	40000000	46040000
chr9	40000000	46040000
chr9	40000000	46040000
chr9	42000000	48040000
chr9	42000000	48040000
chr9	42000000	48040000
chr9	42000000	48040000
chr9	42000000	48040000
chr9	42000000	48040000
chr9	44000000	50040000
chr9	44000000	50040000
chr9	44000000	50040000
chr9	44000000	50040000
chr9	44000000	50040000
chr9	44000000	50040000
chr9	46000000	52040000
chr9	46000000	52040000
chr9	46000000	52040000
chr9	46000000	52040000
chr9	46000000	52040000
chr9	46000000	52040000
chr9	48000000	54040000
chr9	48000000	54040000
chr9	50000000	56040000
chr9	50000000	56040000
chr9	62000000	68040000
chr9	62000000	68040000
chr9	62000000	68040000
chr9	62000000	68040000
chr9	64000000	70040000
chr9	64000000	70040000
chr9	64000000	70040000
chr9	64000000	70040000
chr9	66000000	72040000
chr9	66000000	72040000
chr9	66000000	72040000
chr9	66000000	72040000
chr9	68000000	74040000
chr9	68000000	74040000
chr9	68000000	74040000
chr9	68000000	74040000
chr9	70000000	76040000
chr9	70000000	76040000
chr9	70000000	76040000
chr9	70000000	76040000
chr9	88000000	94040000
chr9	88000000	94040000
chr9	88000000	94040000
chr9	88000000	94040000
chr9	90000000	96040000
chr9	90000000	96040000
chr9	90000000	96040000
chr9	90000000	96040000
chr9	92000000	98040000
chr9	92000000	98040000
chr9	92000000	98040000
chr9	92000000	98040000
chr9	128000000	134040000
chr9	128000000	134040000
chr9	130000000	136040000
chr9	130000000	136040000
chr9	132000000	138040000
chr9	132000000	138040000
chr9	136000000	141240000
chr9	136000000	141240000
chr9	136000000	141240000
chr9	136000000	141240000
chr9	136000000	141240000
