chr15	79600000	80480000
chr15	64440000	65040000
chr15	90800000	91160000
chr15	63840000	64440000
chr15	54680000	55120000
chr15	40880000	41160000
chr15	42240000	42800000
chr15	98800000	99000000
chr15	88800000	89000000
chr15	72080000	72400000
chr15	49760000	50440000
chr15	48400000	48600000
chr15	50440000	50640000
chr15	59240000	59440000
chr15	72880000	74000000
chr15	37440000	38240000
chr15	91560000	91840000
chr15	62640000	63480000
chr15	74880000	75280000
chr15	59240000	59840000
chr15	38240000	39000000
chr15	68520000	69240000
chr15	78840000	79560000
chr15	74320000	74640000
chr15	75640000	76120000
chr15	76440000	77240000
chr15	45440000	45720000
chr15	46120000	46600000
chr15	91560000	92600000
chr15	61240000	62120000
chr15	86400000	86720000
chr15	94920000	96920000
chr15	53520000	53880000
chr15	91840000	92400000
chr15	69920000	70360000
chr15	53040000	54080000
chr15	77200000	78200000
chr15	74640000	74880000
chr15	38200000	38720000
chr15	70360000	70760000
chr15	74200000	74640000
chr15	62160000	62640000
chr15	55920000	56720000
chr15	100320000	100880000
chr15	89840000	90120000
chr15	97480000	98320000
chr15	97760000	98320000
chr15	78200000	79520000
chr15	51880000	53040000
chr15	59480000	59680000
chr15	52080000	53040000
chr15	58480000	59920000
chr15	99760000	100360000
chr15	64080000	64400000
chr15	93280000	93560000
chr15	65720000	66880000
chr15	46360000	46600000
chr15	96920000	98800000
chr15	43440000	44080000
chr15	78200000	78880000
chr15	45200000	45920000
chr15	73080000	73400000
chr15	80680000	81280000
chr15	76200000	77200000
chr15	50640000	50920000
chr15	48640000	49160000
chr15	36160000	36800000
chr15	40840000	41640000
chr15	89880000	90200000
chr15	95160000	96880000
chr15	49480000	50600000
chr15	47480000	48520000
chr15	69800000	70040000
chr15	72880000	73600000
chr15	90800000	91480000
chr15	56720000	57840000
chr15	48720000	49120000
chr15	36120000	36320000
chr15	65880000	66680000
chr15	42440000	42800000
chr15	39360000	39880000
chr15	98400000	98960000
chr15	64440000	64680000
chr15	79200000	79520000
chr15	73800000	74000000
chr15	42800000	43400000
chr15	65000000	65280000
chr15	86400000	87440000
chr15	63080000	63400000
chr15	86720000	87480000
chr15	90240000	90440000
chr15	95200000	95760000
chr15	53160000	53520000
chr15	90840000	91080000
chr15	78560000	78840000
chr15	93480000	94720000
chr15	40280000	40480000
chr15	66360000	66560000
chr15	66640000	66880000
chr15	42800000	43480000
chr15	98320000	98840000
chr15	97240000	97440000
chr15	58560000	58880000
chr15	74640000	75280000
chr15	47240000	47480000
chr15	57840000	58360000
chr15	59960000	60640000
chr15	43640000	43880000
chr15	91800000	92640000
chr15	76320000	77200000
chr15	98440000	98640000
chr15	38720000	39000000
chr15	88200000	88800000
chr15	77560000	77880000
chr15	47480000	48400000
chr15	35320000	38240000
chr15	35800000	37440000
chr15	90200000	90800000
chr15	97440000	97800000
chr15	71160000	72120000
chr15	71120000	71760000
chr15	56160000	56720000
chr15	80480000	81280000
chr15	80480000	80680000
chr15	93640000	94680000
chr15	60760000	62160000
chr15	75280000	76200000
chr15	63400000	64360000
chr15	68560000	69680000
chr15	64440000	65320000
chr15	47480000	48320000
chr15	36320000	36560000
chr15	43600000	44120000
chr15	76160000	78200000
chr15	70960000	71200000
chr15	72120000	72480000
chr15	74360000	74560000
chr15	71120000	72480000
chr15	72480000	73600000
chr15	94920000	95760000
chr15	92640000	93040000
chr15	62360000	62640000
chr15	52520000	53040000
chr15	99040000	99640000
chr15	69240000	69760000
chr15	99200000	99560000
chr15	89160000	89440000
chr15	78240000	78440000
chr15	96680000	96880000
chr15	90680000	91560000
chr15	54040000	55520000
chr15	56240000	56760000
chr15	56760000	57680000
chr15	43000000	43240000
chr15	51880000	52520000
chr15	59040000	59240000
chr15	75280000	75640000
chr15	59960000	60760000
chr15	35320000	35800000
chr15	44080000	44880000
chr15	45120000	45320000
chr15	58880000	59080000
chr15	90440000	90640000
chr15	92640000	93480000
chr15	39880000	40080000
chr15	79280000	79480000
chr15	96920000	97240000
chr15	96480000	96680000
chr15	64680000	65120000
chr15	77880000	78160000
chr15	96480000	96920000
chr15	44120000	45760000
chr15	65600000	66800000
chr15	76200000	76440000
chr15	69720000	71120000
chr15	90200000	91560000
chr15	57840000	58480000
chr15	71760000	72080000
chr15	74240000	75280000
chr15	42120000	42440000
chr15	39960000	40320000
chr15	35800000	36800000
chr15	44560000	44800000
chr15	87440000	88840000
chr15	35360000	35560000
chr15	45080000	45760000
chr15	58520000	59080000
chr15	96880000	97800000
chr15	35560000	35800000
chr15	65600000	65880000
chr15	41120000	42240000
chr15	40720000	41520000
chr15	55520000	56240000
chr15	71160000	72040000
chr15	74000000	74640000
chr15	66840000	67200000
chr15	45120000	45920000
chr15	41120000	41680000
chr15	61520000	61920000
chr15	56360000	56560000
chr15	64640000	65040000
chr15	39000000	39960000
chr15	91840000	93320000
chr15	62160000	62360000
chr15	73600000	74200000
chr15	87480000	88200000
chr15	61240000	61520000
chr15	79200000	79600000
chr15	93640000	94600000
chr15	67240000	67680000
chr15	86400000	89040000
chr15	71200000	71760000
chr15	89880000	90800000
chr15	52600000	52880000
chr15	92640000	92840000
chr15	49280000	49480000
chr15	68600000	68800000
chr15	93000000	93280000
chr15	89880000	90680000
chr15	49120000	50600000
chr15	90800000	91560000
chr15	79640000	80160000
chr15	56400000	56720000
chr15	39000000	40080000
chr15	51440000	51720000
chr15	43400000	43600000
chr15	51280000	51480000
chr15	52080000	52520000
chr15	55600000	56240000
chr15	63400000	63920000
chr15	73560000	73840000
chr15	50640000	51200000
chr15	41160000	41520000
chr15	73040000	73560000
chr15	101160000	101720000
chr15	41680000	42480000
chr15	53160000	53360000
chr15	89040000	89880000
chr15	67160000	68520000
chr15	94680000	94880000
chr15	46560000	47480000
chr15	54160000	55480000
chr15	62640000	63400000
chr15	77400000	77880000
chr15	68800000	69200000
chr15	46120000	46360000
chr15	50520000	50720000
chr15	69760000	70960000
chr15	91160000	91480000
chr15	36800000	37160000
chr15	72480000	72880000
chr15	97800000	98400000
chr15	51200000	51880000
chr15	40480000	40760000
chr15	53520000	54040000
chr15	37160000	37440000
chr15	70000000	70360000
chr15	52280000	52480000
chr15	47480000	48600000
chr15	93560000	94880000
chr15	41640000	42240000
chr15	44880000	45880000
chr15	56760000	57920000
chr15	56960000	57200000
chr15	72640000	72920000
chr15	95760000	96880000
chr15	76640000	76840000
chr15	80920000	81160000
chr15	50920000	51200000
chr15	58120000	58320000
chr15	48640000	50640000
chr15	79600000	80320000
chr15	62640000	63080000
chr15	40280000	40840000
chr15	92640000	93320000
chr15	95920000	96320000
chr15	69720000	71040000
chr15	57400000	57600000
chr15	59240000	59920000
chr15	63560000	63920000
chr15	60880000	61240000
chr15	96880000	97520000
chr15	60640000	60840000
chr15	67680000	68120000
chr15	55600000	55920000
chr15	54040000	55640000
chr15	41680000	42800000
chr15	49120000	49480000
chr15	57000000	57600000
chr15	63560000	64440000
chr15	76640000	77160000
chr15	57640000	57920000
chr15	55760000	56760000
chr15	51200000	51760000
chr15	46000000	46560000
chr15	78840000	79040000
chr15	98960000	99760000
chr15	64400000	65600000
chr15	58480000	59240000
chr15	99200000	99640000
chr15	51280000	51720000
chr15	55920000	56240000
chr15	35800000	36160000
chr15	77280000	78200000
chr15	44920000	45120000
chr15	99160000	99440000
chr15	55480000	55920000
chr15	48320000	48560000
chr15	38320000	38520000
chr15	68120000	68560000
chr15	78200000	78560000
chr15	42240000	42480000
chr15	98320000	98720000
chr15	57200000	57440000
chr15	95320000	95560000
chr15	35360000	37520000
chr15	76520000	77120000
chr15	35000000	35240000
chr15	74000000	74240000
chr15	59400000	59800000
chr15	50720000	51840000
chr15	96880000	98400000
chr15	55520000	56160000
chr15	40040000	40400000
chr15	67200000	68120000
chr15	35800000	36080000
chr15	92400000	92600000
chr15	46600000	47240000
chr15	71200000	71400000
chr15	50640000	51920000
chr15	57600000	57840000
chr15	72040000	72480000
chr15	54240000	55480000
chr15	44160000	44600000
chr15	95920000	96480000
chr15	45760000	45960000
chr15	36800000	37440000
chr15	93640000	94080000
chr15	39080000	39360000
chr15	39360000	39800000
chr15	73600000	74040000
chr15	76120000	77200000
chr15	41760000	42120000
chr15	94920000	95200000
chr15	55640000	56760000
chr15	79560000	80160000
chr15	49480000	49800000
