chr19	10040000	10220000
chr19	50040000	50140000
chr19	26860000	26980000
chr19	26860000	27240000
chr19	12100000	12460000
chr19	24960000	25120000
chr19	12600000	12740000
chr19	22340000	22640000
chr19	24280000	24940000
chr19	32860000	33380000
chr19	37740000	37860000
chr19	15800000	15920000
chr19	48260000	48380000
chr19	32940000	33100000
chr19	41780000	41900000
chr19	43840000	43960000
chr19	26460000	26600000
chr19	32900000	33100000
chr19	28640000	28760000
chr19	29000000	29360000
chr19	59360000	60420000
chr19	38060000	38160000
chr19	22920000	23160000
chr19	21120000	21260000
chr19	14200000	14600000
chr19	54540000	55060000
chr19	33480000	33600000
chr19	47500000	47840000
chr19	17160000	17400000
chr19	15980000	16660000
chr19	30360000	30520000
chr19	16880000	17020000
chr19	38440000	38740000
chr19	20500000	20620000
chr19	58920000	59200000
chr19	34500000	34660000
chr19	16380000	16600000
chr19	42820000	42940000
chr19	16120000	16380000
chr19	36520000	36820000
chr19	20340000	20780000
chr19	51220000	51340000
chr19	7620000	8540000
chr19	11180000	11340000
chr19	26840000	27440000
chr19	34240000	34660000
chr19	20420000	20780000
chr19	30840000	31080000
chr19	36460000	36600000
chr19	30020000	30120000
chr19	56820000	57040000
chr19	28180000	28400000
chr19	21980000	22100000
chr19	58680000	59340000
chr19	14600000	15040000
chr19	56920000	57020000
chr19	60440000	60540000
chr19	53380000	53660000
chr19	31760000	32060000
chr19	12720000	12840000
chr19	34780000	34920000
chr19	42840000	43400000
chr19	9880000	10980000
chr19	38780000	38960000
chr19	21880000	21980000
chr19	53640000	53940000
chr19	29060000	29200000
chr19	29640000	30220000
chr19	15960000	16780000
chr19	18360000	18460000
chr19	13760000	13860000
chr19	59020000	59140000
chr19	56540000	56780000
chr19	43760000	44140000
chr19	31340000	31500000
chr19	45180000	45560000
chr19	11340000	11620000
chr19	10200000	10560000
chr19	47980000	48140000
chr19	44140000	44440000
chr19	12120000	12240000
chr19	11760000	12020000
chr19	44920000	45080000
chr19	46040000	46520000
chr19	21160000	21260000
chr19	32700000	32920000
chr19	57040000	57380000
chr19	58720000	59340000
chr19	21360000	21580000
chr19	41840000	42180000
chr19	11020000	11140000
chr19	36920000	37320000
chr19	37940000	38360000
chr19	28160000	28740000
chr19	14600000	14720000
chr19	8720000	9140000
chr19	47180000	47340000
chr19	34660000	34980000
chr19	55080000	55300000
chr19	25680000	26200000
chr19	23760000	23860000
chr19	12020000	12120000
chr19	44140000	44940000
chr19	25340000	25480000
chr19	50160000	50260000
chr19	11200000	11300000
chr19	14780000	14880000
chr19	32100000	32420000
chr19	26180000	26600000
chr19	23380000	23480000
chr19	58920000	59100000
chr19	26500000	26600000
chr19	12000000	12500000
chr19	27480000	27640000
chr19	43500000	43700000
chr19	27460000	27600000
chr19	10980000	11960000
chr19	23540000	23760000
chr19	33960000	34160000
chr19	58760000	59360000
chr19	18680000	18860000
chr19	37680000	37940000
chr19	27260000	27380000
chr19	55320000	56340000
chr19	11380000	11500000
chr19	36340000	36460000
chr19	48420000	48840000
chr19	34180000	34300000
chr19	42460000	42760000
chr19	59380000	60380000
chr19	16780000	17100000
chr19	17740000	17840000
chr19	31980000	32100000
chr19	20440000	20720000
chr19	44140000	44560000
chr19	24940000	25520000
chr19	50360000	50680000
chr19	8700000	8980000
chr19	37540000	37700000
chr19	31560000	31660000
chr19	38400000	38800000
chr19	34340000	34480000
chr19	29360000	29520000
chr19	21020000	21300000
chr19	44560000	44700000
chr19	41620000	41780000
chr19	28160000	28640000
chr19	56400000	56560000
chr19	45080000	45180000
chr19	15040000	15620000
chr19	11900000	12000000
chr19	21040000	21260000
chr19	36460000	36820000
chr19	28780000	29000000
chr19	41320000	41480000
chr19	42940000	43400000
chr19	11340000	11760000
chr19	36800000	36920000
chr19	55420000	55600000
chr19	44720000	44900000
chr19	45280000	45440000
chr19	10520000	10640000
chr19	32080000	32500000
chr19	37940000	38060000
chr19	22900000	23280000
chr19	34940000	36080000
chr19	58900000	59340000
chr19	26360000	26460000
chr19	57700000	58680000
chr19	58240000	58360000
chr19	29820000	30220000
chr19	23980000	24160000
chr19	56920000	57060000
chr19	34200000	34900000
chr19	58720000	58920000
chr19	55060000	55220000
chr19	32760000	33140000
chr19	18640000	18760000
chr19	37560000	37940000
chr19	15820000	16020000
chr19	34060000	34240000
chr19	46300000	46400000
chr19	43700000	43820000
chr19	25100000	25340000
chr19	21900000	22180000
chr19	44140000	45000000
chr19	16780000	17440000
chr19	21800000	22320000
chr19	41480000	41620000
chr19	53740000	53940000
chr19	37320000	38940000
chr19	32980000	33100000
chr19	47060000	47340000
chr19	47340000	47500000
chr19	22780000	22880000
chr19	26700000	27440000
chr19	26600000	26720000
chr19	30220000	30580000
chr19	42780000	43440000
chr19	26980000	27240000
chr19	38540000	38760000
chr19	36180000	36340000
chr19	35000000	35120000
chr19	52720000	52840000
chr19	43660000	43780000
chr19	12840000	13900000
chr19	28760000	29580000
chr19	29520000	29640000
chr19	44160000	44360000
chr19	59340000	60520000
chr19	31180000	31340000
chr19	32700000	33380000
chr19	27440000	28040000
chr19	46760000	46860000
chr19	27140000	27240000
chr19	41900000	42180000
chr19	24500000	24620000
chr19	42300000	42460000
chr19	11500000	11600000
chr19	28400000	28640000
chr19	31500000	31660000
chr19	45260000	45560000
chr19	10660000	10960000
chr19	44200000	44360000
chr19	29040000	29360000
chr19	56220000	56320000
chr19	29100000	29260000
chr19	23640000	23760000
chr19	28240000	28360000
chr19	10680000	10900000
chr19	44920000	45040000
chr19	42660000	42760000
chr19	27880000	28000000
chr19	29240000	29360000
chr19	57360000	57660000
chr19	55200000	55340000
chr19	31340000	31680000
chr19	31080000	31340000
chr19	11600000	11760000
chr19	28820000	28980000
chr19	14740000	14840000
chr19	42920000	43320000
chr19	34780000	34980000
chr19	35140000	35240000
chr19	10980000	11760000
chr19	30880000	31080000
chr19	44600000	44720000
chr19	56380000	56820000
chr19	11760000	11940000
chr19	42460000	42560000
chr19	24280000	24600000
chr19	53800000	53920000
chr19	53940000	54060000
chr19	42580000	42780000
chr19	59540000	59640000
chr19	30740000	31840000
chr19	46500000	47180000
chr19	33380000	34160000
chr19	22320000	22880000
chr19	36580000	36840000
chr19	24280000	24680000
chr19	30260000	30520000
chr19	19020000	19120000
chr19	25220000	25320000
chr19	16020000	16400000
chr19	34280000	34580000
chr19	15620000	15840000
chr19	54040000	55060000
chr19	13840000	13980000
chr19	53640000	53760000
chr19	56800000	56920000
chr19	32160000	32360000
chr19	41620000	41860000
chr19	28020000	28160000
chr19	59220000	59360000
chr19	38380000	38960000
chr19	31960000	32700000
chr19	24760000	24880000
chr19	26980000	27140000
chr19	43680000	44140000
chr19	43820000	44140000
chr19	41060000	41260000
chr19	22680000	22780000
chr19	34780000	34880000
chr19	14640000	14740000
chr19	17840000	18560000
chr19	37940000	38200000
chr19	14600000	14980000
chr19	26700000	26880000
chr19	12280000	12400000
chr19	12420000	12520000
chr19	40280000	40600000
chr19	30400000	30500000
chr19	24140000	24280000
chr19	31780000	31960000
chr19	25000000	25100000
chr19	58520000	58640000
chr19	44560000	44920000
chr19	16760000	17400000
chr19	37380000	37580000
chr19	58460000	58560000
chr19	18860000	18960000
chr19	50240000	50700000
chr19	52440000	52600000
chr19	21560000	21740000
chr19	30300000	30540000
chr19	58060000	58460000
chr19	27760000	28020000
chr19	45560000	45760000
chr19	45780000	46000000
chr19	20860000	21020000
chr19	43040000	43280000
chr19	30560000	30680000
chr19	45080000	45560000
chr19	47960000	48200000
chr19	23980000	24260000
chr19	38960000	40240000
chr19	29720000	29820000
chr19	26220000	26360000
chr19	24280000	24520000
chr19	38200000	38400000
chr19	27460000	27760000
chr19	36820000	37380000
chr19	52720000	52920000
chr19	9900000	10040000
chr19	43400000	43520000
chr19	14340000	14960000
chr19	38220000	38340000
chr19	26280000	26460000
chr19	45580000	46040000
chr19	12140000	12400000
chr19	11020000	11320000
chr19	46120000	46300000
chr19	47120000	47340000
chr19	18860000	19100000
chr19	29620000	29840000
chr19	17120000	17220000
chr19	16380000	16480000
chr19	27580000	27760000
chr19	22640000	22780000
chr19	33220000	33380000
chr19	23280000	23540000
chr19	59020000	59200000
chr19	34640000	34800000
chr19	32740000	33220000
chr19	10600000	11000000
chr19	16000000	16620000
chr19	48180000	48420000
chr19	58480000	58640000
chr19	42880000	43000000
chr19	17480000	17600000
chr19	8980000	9140000
chr19	22340000	22440000
chr19	35120000	36080000
chr19	46580000	46760000
chr19	41260000	41540000
chr19	43960000	44080000
chr19	26980000	27080000
chr19	32900000	33380000
chr19	13960000	14340000
chr19	33120000	33220000
chr19	24380000	24500000
chr19	58760000	58920000
chr19	38540000	38680000
chr19	46540000	47060000
chr19	39320000	39460000
chr19	29140000	29240000
chr19	28760000	29360000
chr19	15040000	15660000
chr19	32440000	32700000
chr19	12460000	12600000
chr19	27220000	27420000
chr19	29200000	29360000
chr19	58920000	59140000
chr19	33400000	34060000
chr19	38060000	38200000
chr19	46860000	47060000
chr19	34300000	34500000
chr19	18760000	18860000
chr19	21400000	21520000
chr19	58720000	59220000
chr19	18560000	18740000
chr19	24640000	24880000
chr19	40860000	40980000
chr19	28520000	28620000
chr19	46080000	46320000
chr19	12500000	12600000
chr19	30220000	30620000
chr19	59220000	59320000
chr19	58640000	58760000
chr19	40600000	40740000
chr19	15220000	15320000
chr19	57780000	58060000
chr19	14960000	15400000
chr19	13700000	13860000
chr19	18860000	20340000
chr19	28020000	28760000
chr19	55760000	55880000
chr19	24680000	24880000
chr19	45780000	46060000
chr19	44420000	44560000
chr19	23340000	23520000
chr19	16600000	16800000
chr19	15660000	15960000
chr19	20440000	20640000
chr19	14420000	14600000
chr19	12000000	12840000
chr19	30960000	31080000
chr19	57100000	57360000
chr19	23280000	23980000
chr19	40920000	41020000
chr19	47660000	47840000
chr19	32700000	32860000
chr19	38800000	39000000
chr19	18640000	18820000
chr19	11640000	11760000
chr19	41080000	41220000
chr19	22640000	22880000
chr19	36580000	36800000
chr19	44640000	44740000
chr19	17080000	17420000
chr19	42300000	42580000
chr19	32400000	32500000
chr19	45280000	45480000
chr19	24620000	24720000
chr19	11340000	11440000
chr19	23860000	23960000
chr19	9140000	9860000
chr19	8540000	9280000
chr19	7500000	7620000
chr19	12600000	12840000
chr19	27440000	28760000
chr19	52980000	53380000
chr19	32760000	32940000
chr19	27640000	27760000
chr19	17460000	17860000
chr19	26660000	26760000
chr19	56360000	57040000
chr19	43760000	44100000
chr19	24920000	25100000
chr19	8560000	8700000
chr19	48000000	48100000
chr19	17980000	18080000
chr19	46400000	46500000
chr19	30880000	31040000
chr19	46320000	46520000
chr19	38840000	38940000
chr19	55220000	56340000
chr19	26220000	26700000
chr19	36100000	36460000
chr19	30680000	30840000
