chr7	140880000	141060000
chr7	91440000	92100000
chr7	128420000	128700000
chr7	121980000	122120000
chr7	123520000	123960000
chr7	63440000	63580000
chr7	111240000	111780000
chr7	68360000	68940000
chr7	63060000	63220000
chr7	55760000	56240000
chr7	95480000	95860000
chr7	66820000	67200000
chr7	87600000	88060000
chr7	68520000	68860000
chr7	101680000	101780000
chr7	121560000	121660000
chr7	128080000	128220000
chr7	117380000	117900000
chr7	108460000	108560000
chr7	90280000	90440000
chr7	76380000	76960000
chr7	134920000	135220000
chr7	143800000	144060000
chr7	97740000	97940000
chr7	27160000	27280000
chr7	122020000	122180000
chr7	37620000	37720000
chr7	81360000	81580000
chr7	100000000	100160000
chr7	116540000	116640000
chr7	119920000	120080000
chr7	59840000	60060000
chr7	43680000	43920000
chr7	29620000	29740000
chr7	3320000	3460000
chr7	111540000	111780000
chr7	141540000	141660000
chr7	112680000	112840000
chr7	130380000	130520000
chr7	129720000	129820000
chr7	65280000	65680000
chr7	138720000	138820000
chr7	44080000	44180000
chr7	68140000	68300000
chr7	90460000	91440000
chr7	66680000	66840000
chr7	68520000	68920000
chr7	80620000	80720000
chr7	43580000	43680000
chr7	75380000	75580000
chr7	94360000	94580000
chr7	112660000	112880000
chr7	132220000	132500000
chr7	128220000	128360000
chr7	119800000	120100000
chr7	73000000	73400000
chr7	137320000	137460000
chr7	46240000	46640000
chr7	78320000	78440000
chr7	124120000	124380000
chr7	92600000	92980000
chr7	3700000	4460000
chr7	101300000	101400000
chr7	125400000	125680000
chr7	116500000	116620000
chr7	63000000	63240000
chr7	116620000	118120000
chr7	139300000	139400000
chr7	120440000	120600000
chr7	81960000	82120000
chr7	111240000	111500000
chr7	118720000	118860000
chr7	43220000	43420000
chr7	117380000	117580000
chr7	142280000	142720000
chr7	3720000	3960000
chr7	57560000	57840000
chr7	122160000	122460000
chr7	133220000	133640000
chr7	94200000	94300000
chr7	123200000	123420000
chr7	96200000	96520000
chr7	79360000	79460000
chr7	80380000	80620000
chr7	83660000	83820000
chr7	118540000	118700000
chr7	44720000	44820000
chr7	122240000	122480000
chr7	125740000	126120000
chr7	63740000	63940000
chr7	80380000	80720000
chr7	81560000	81780000
chr7	76460000	76580000
chr7	121760000	121940000
chr7	118260000	118540000
chr7	134900000	135400000
chr7	87360000	87480000
chr7	34680000	34800000
chr7	101900000	102200000
chr7	63940000	64160000
chr7	98440000	98660000
chr7	62480000	62860000
chr7	130260000	130500000
chr7	135840000	136100000
chr7	72240000	73440000
chr7	118580000	118700000
chr7	138260000	138360000
chr7	97020000	97320000
chr7	132220000	132580000
chr7	12400000	12780000
chr7	123580000	123940000
chr7	84460000	84580000
chr7	102740000	102860000
chr7	138940000	139040000
chr7	75120000	75380000
chr7	47340000	47460000
chr7	83220000	83360000
chr7	130260000	130380000
chr7	99600000	99840000
chr7	96920000	97360000
chr7	61480000	61780000
chr7	121700000	121980000
chr7	67780000	68220000
chr7	57680000	57800000
chr7	117900000	118100000
chr7	65700000	65800000
chr7	141480000	141680000
chr7	117660000	117900000
chr7	40100000	40260000
chr7	115720000	115840000
chr7	34800000	35000000
chr7	60260000	60380000
chr7	66200000	66300000
chr7	30340000	30440000
chr7	4280000	4400000
chr7	128500000	128600000
chr7	56920000	57480000
chr7	27300000	27540000
chr7	24420000	24980000
chr7	80580000	80700000
chr7	59560000	59820000
chr7	72220000	72380000
chr7	139300000	139480000
chr7	34240000	34360000
chr7	111160000	111780000
chr7	141440000	141680000
chr7	99360000	99480000
chr7	89440000	89940000
chr7	136100000	136480000
chr7	131420000	131880000
chr7	120100000	120220000
chr7	63740000	64160000
chr7	89040000	89140000
chr7	120660000	120760000
chr7	54760000	55720000
chr7	130340000	130520000
chr7	142180000	142300000
chr7	124380000	124660000
chr7	92560000	92980000
chr7	144660000	144780000
chr7	114580000	114860000
chr7	133820000	134360000
chr7	49600000	49780000
chr7	81000000	81160000
chr7	132600000	132860000
chr7	123020000	123200000
chr7	143680000	143780000
chr7	79620000	79780000
chr7	102200000	102500000
chr7	118860000	119000000
chr7	93200000	93300000
chr7	89120000	89440000
chr7	90520000	91240000
chr7	80700000	80880000
chr7	87300000	87560000
chr7	133000000	133640000
chr7	130760000	130960000
chr7	132320000	132480000
chr7	133000000	133140000
chr7	43260000	43580000
chr7	126780000	127200000
chr7	35900000	36700000
chr7	62200000	62420000
chr7	125180000	125400000
chr7	82460000	82640000
chr7	25620000	25760000
chr7	112240000	112340000
chr7	117560000	117700000
chr7	115220000	115380000
chr7	127660000	127760000
chr7	87160000	87300000
chr7	131880000	132580000
chr7	49940000	50720000
chr7	80120000	80260000
chr7	79100000	79380000
chr7	63320000	63740000
chr7	129940000	130500000
chr7	121380000	121500000
chr7	28340000	28440000
chr7	83360000	83480000
chr7	56240000	57480000
chr7	90840000	90940000
chr7	68140000	68240000
chr7	139060000	139220000
chr7	37620000	37760000
chr7	144080000	144200000
chr7	138400000	138840000
chr7	99900000	100240000
chr7	12760000	13060000
chr7	107240000	107360000
chr7	43020000	43140000
chr7	82920000	83020000
chr7	74360000	74580000
chr7	61480000	61640000
chr7	92880000	92980000
chr7	30300000	30580000
chr7	81780000	81960000
chr7	117960000	118080000
chr7	41400000	41500000
chr7	100900000	101400000
chr7	139600000	139900000
chr7	45700000	45940000
chr7	27540000	27720000
chr7	79120000	79240000
chr7	118720000	119000000
chr7	131080000	131340000
chr7	111160000	112000000
chr7	92440000	92540000
chr7	73640000	74360000
chr7	88140000	88440000
chr7	17160000	17300000
chr7	28060000	28160000
chr7	75580000	75720000
chr7	50500000	50720000
chr7	74460000	74560000
chr7	120620000	120840000
chr7	137580000	137800000
chr7	78900000	79360000
chr7	76280000	76400000
chr7	112160000	112380000
chr7	82840000	83560000
chr7	4620000	4820000
chr7	138840000	139040000
chr7	65360000	65500000
chr7	47180000	47380000
chr7	18700000	18880000
chr7	83920000	84060000
chr7	123400000	123500000
chr7	137360000	137460000
chr7	135200000	135380000
chr7	130640000	130760000
chr7	61880000	62200000
chr7	126400000	126540000
chr7	107220000	107320000
chr7	109040000	109460000
chr7	130980000	131100000
chr7	29360000	29540000
chr7	120820000	120940000
chr7	139060000	139300000
chr7	96000000	96100000
chr7	97720000	98040000
chr7	96560000	96720000
chr7	89480000	89860000
chr7	110820000	110980000
chr7	51280000	51420000
chr7	63220000	63320000
chr7	46640000	46920000
chr7	122680000	122840000
chr7	49120000	49280000
chr7	121620000	121720000
chr7	78780000	78900000
chr7	114400000	114580000
chr7	34820000	34920000
chr7	131880000	132220000
chr7	72600000	72700000
chr7	135520000	135680000
chr7	109780000	109900000
chr7	112460000	112720000
chr7	49760000	49940000
chr7	112960000	113140000
chr7	66300000	66420000
chr7	47200000	47300000
chr7	34500000	34660000
chr7	109480000	109740000
chr7	109940000	110060000
chr7	139580000	140060000
chr7	83660000	83880000
chr7	88740000	88840000
chr7	75720000	75900000
chr7	126700000	127240000
chr7	134440000	134560000
chr7	28780000	28900000
chr7	119520000	119700000
chr7	60600000	60740000
chr7	101660000	102200000
chr7	135480000	135740000
chr7	96760000	96880000
chr7	25400000	25740000
chr7	83220000	83320000
chr7	25240000	25400000
chr7	27820000	28020000
chr7	28760000	29040000
chr7	118100000	118260000
chr7	113140000	113360000
chr7	66900000	67020000
chr7	135180000	135300000
chr7	124800000	125040000
chr7	82300000	82640000
chr7	61780000	61880000
chr7	98700000	99140000
chr7	107360000	107520000
chr7	109740000	109960000
chr7	88140000	88400000
chr7	68360000	68560000
chr7	13100000	13280000
chr7	62460000	62640000
chr7	51740000	51840000
chr7	80260000	80380000
chr7	30440000	30580000
chr7	139020000	139200000
chr7	82340000	82440000
chr7	46820000	47180000
chr7	28780000	28980000
chr7	60060000	60160000
chr7	125040000	125160000
chr7	62060000	62160000
chr7	65160000	65300000
chr7	6340000	6440000
chr7	80960000	81160000
chr7	121980000	122160000
chr7	143280000	143400000
chr7	44660000	44840000
chr7	87660000	87760000
chr7	126240000	126340000
chr7	61640000	61740000
chr7	116320000	116560000
chr7	54820000	55700000
chr7	45140000	45360000
chr7	82020000	82120000
chr7	68700000	68820000
chr7	87400000	87520000
chr7	64160000	64360000
chr7	116340000	116520000
chr7	73420000	73660000
chr7	78580000	78780000
chr7	28620000	28720000
chr7	71960000	72120000
chr7	128780000	129620000
chr7	82720000	82860000
chr7	117380000	117660000
chr7	16620000	16800000
chr7	140060000	140360000
chr7	94100000	94360000
chr7	128020000	128220000
chr7	112380000	112900000
chr7	25720000	25860000
chr7	91460000	91600000
chr7	75940000	76300000
chr7	68620000	68820000
chr7	101660000	101900000
chr7	43680000	43880000
chr7	88400000	88540000
chr7	61320000	61480000
chr7	100460000	100660000
chr7	50800000	50960000
chr7	91240000	91440000
chr7	131320000	131420000
chr7	120920000	121140000
chr7	66700000	67220000
chr7	141440000	142100000
chr7	83800000	83900000
chr7	137480000	138400000
chr7	119040000	119440000
chr7	133640000	133840000
chr7	43980000	44080000
chr7	110520000	110640000
chr7	66460000	66600000
chr7	133680000	133860000
chr7	67200000	67660000
chr7	99620000	99720000
chr7	134580000	134920000
chr7	46780000	47180000
chr7	108920000	109080000
chr7	75140000	75260000
chr7	67640000	67760000
chr7	115020000	115120000
chr7	4540000	5000000
chr7	25080000	25240000
chr7	142560000	142680000
chr7	120620000	120940000
chr7	37000000	37300000
chr7	60620000	61260000
chr7	27580000	27680000
chr7	81360000	81460000
chr7	46920000	47160000
chr7	71860000	72160000
chr7	99120000	99480000
chr7	72160000	72320000
chr7	111560000	111720000
chr7	43260000	43380000
chr7	73220000	73320000
chr7	109120000	109240000
chr7	78160000	78580000
chr7	112580000	112680000
chr7	120100000	120340000
chr7	29540000	29760000
chr7	43680000	44240000
chr7	28020000	28160000
chr7	51460000	51560000
chr7	134360000	134600000
chr7	107220000	107600000
chr7	142320000	142440000
chr7	46400000	46540000
chr7	42760000	42900000
chr7	82860000	83220000
chr7	67940000	68360000
chr7	78960000	79080000
chr7	54720000	54820000
chr7	126780000	127120000
chr7	67940000	68140000
chr7	75120000	75900000
chr7	129520000	129660000
chr7	46020000	46260000
chr7	95540000	95680000
chr7	56720000	56860000
chr7	116320000	116460000
chr7	98720000	98840000
chr7	75380000	75640000
chr7	58760000	59100000
chr7	78660000	78760000
chr7	92580000	92880000
chr7	131760000	131880000
chr7	50360000	50460000
chr7	143920000	144060000
chr7	74940000	75040000
chr7	67060000	67180000
chr7	91520000	92040000
chr7	108940000	109500000
chr7	4460000	5100000
chr7	75640000	75920000
chr7	101940000	102080000
chr7	68400000	68540000
chr7	100500000	100680000
chr7	100000000	100120000
chr7	40680000	40800000
chr7	81180000	81280000
chr7	98480000	98720000
chr7	108820000	108920000
chr7	87600000	88020000
chr7	144580000	144780000
chr7	121160000	121260000
chr7	111780000	111980000
chr7	56340000	56460000
chr7	61640000	61780000
chr7	133760000	134360000
chr7	117660000	118100000
chr7	86640000	86960000
chr7	131560000	131780000
chr7	101060000	101260000
chr7	79760000	79920000
chr7	139600000	139960000
chr7	63740000	64340000
chr7	95580000	95680000
chr7	118300000	118520000
chr7	139900000	140080000
chr7	140460000	140680000
chr7	64860000	65160000
chr7	64160000	64300000
chr7	28300000	28400000
chr7	34440000	34680000
chr7	91080000	91240000
chr7	86940000	87080000
chr7	49760000	49880000
chr7	125640000	126200000
chr7	60740000	60840000
chr7	26900000	27000000
chr7	125460000	125600000
chr7	75940000	76220000
chr7	95860000	96200000
chr7	92980000	93320000
chr7	100660000	100860000
chr7	67100000	67200000
chr7	84080000	84280000
chr7	116100000	116540000
chr7	83560000	83900000
chr7	24380000	24580000
chr7	133140000	133640000
chr7	79920000	80120000
chr7	132900000	133020000
chr7	116100000	116620000
chr7	114280000	114400000
chr7	72400000	72760000
chr7	35280000	35640000
chr7	116140000	116240000
chr7	113600000	113740000
chr7	109500000	109960000
chr7	81160000	81360000
chr7	97720000	98140000
chr7	116700000	117380000
chr7	121660000	122020000
chr7	36680000	37320000
chr7	79620000	79720000
chr7	93140000	93320000
chr7	110120000	110280000
chr7	126680000	126800000
chr7	56940000	57300000
chr7	100900000	101060000
chr7	67440000	67540000
chr7	64920000	65160000
chr7	98940000	99080000
chr7	64760000	64880000
chr7	114700000	114820000
chr7	46240000	46380000
chr7	49120000	49460000
chr7	24980000	25400000
chr7	43680000	43820000
chr7	125660000	126240000
chr7	12580000	12740000
chr7	30620000	30940000
chr7	34680000	35020000
chr7	96520000	96920000
chr7	6440000	6640000
chr7	96200000	96400000
chr7	64340000	64760000
chr7	118120000	118740000
chr7	89500000	89680000
chr7	44560000	44680000
chr7	78220000	78580000
chr7	84140000	84240000
chr7	55780000	56140000
chr7	142780000	142880000
chr7	128840000	129220000
chr7	45580000	45700000
chr7	67940000	68180000
chr7	74020000	74260000
chr7	94060000	94160000
chr7	62840000	63320000
chr7	55560000	55700000
chr7	127760000	127940000
chr7	101400000	101640000
chr7	4820000	5000000
chr7	56240000	56920000
chr7	58560000	58760000
chr7	112880000	113140000
chr7	125260000	125380000
chr7	110260000	110640000
chr7	127460000	127620000
chr7	98720000	99100000
chr7	90520000	90680000
chr7	6440000	6600000
chr7	16920000	17080000
chr7	78920000	79120000
chr7	63000000	63100000
chr7	119800000	119920000
chr7	131180000	131320000
chr7	68220000	68360000
chr7	63340000	63640000
chr7	88140000	88540000
chr7	132220000	132320000
chr7	16280000	16380000
chr7	93120000	93220000
chr7	63320000	63440000
chr7	34400000	35020000
chr7	116100000	116360000
chr7	47000000	47160000
chr7	66400000	66680000
chr7	6120000	6220000
chr7	128420000	128740000
chr7	100240000	100460000
chr7	119040000	119140000
chr7	25380000	25680000
chr7	98340000	98460000
chr7	97740000	97980000
chr7	80380000	80640000
chr7	83980000	84080000
chr7	46800000	46920000
chr7	138580000	138720000
chr7	30000000	30100000
chr7	140080000	140840000
chr7	102100000	102460000
chr7	64940000	65080000
chr7	82680000	83560000
chr7	6440000	6680000
chr7	3200000	3620000
chr7	94140000	94360000
chr7	115200000	116060000
chr7	71860000	72220000
chr7	29760000	29860000
chr7	83560000	83660000
chr7	97400000	97580000
chr7	130520000	131080000
chr7	131080000	131380000
chr7	120920000	121080000
chr7	143480000	143800000
chr7	100480000	100900000
chr7	142120000	142280000
chr7	61300000	61400000
chr7	96260000	96380000
chr7	66080000	66700000
chr7	74740000	74840000
chr7	56780000	56940000
chr7	102500000	102640000
chr7	88000000	88140000
chr7	109960000	110120000
chr7	57500000	57840000
chr7	132580000	133020000
chr7	123520000	125420000
chr7	137620000	137780000
chr7	65680000	66080000
chr7	120340000	120580000
chr7	98820000	99080000
chr7	137460000	137600000
chr7	140340000	140460000
chr7	92100000	92580000
chr7	82120000	82280000
chr7	64780000	65280000
chr7	65320000	65560000
chr7	35520000	35640000
chr7	131420000	131560000
chr7	3720000	4040000
chr7	66840000	67060000
chr7	114860000	115200000
chr7	56140000	56240000
chr7	140520000	140680000
chr7	64480000	64740000
chr7	113760000	113860000
chr7	142740000	142880000
chr7	88620000	88740000
chr7	45420000	45720000
chr7	54760000	55760000
chr7	132700000	132820000
chr7	138840000	138940000
chr7	122960000	123200000
chr7	45360000	45460000
chr7	66320000	66680000
chr7	72420000	73000000
chr7	110700000	110820000
chr7	110700000	111040000
chr7	133760000	135480000
chr7	27820000	27940000
chr7	140260000	140380000
chr7	109080000	109240000
chr7	12880000	13060000
chr7	113860000	114020000
chr7	133860000	134240000
chr7	84360000	84580000
chr7	143540000	143780000
chr7	127340000	127460000
chr7	122960000	123480000
chr7	136180000	136300000
chr7	28740000	28980000
chr7	35020000	35200000
chr7	125840000	126100000
chr7	45140000	45420000
chr7	35280000	35480000
chr7	90700000	90880000
chr7	126240000	126400000
chr7	127600000	127740000
chr7	83220000	83500000
chr7	101400000	101600000
chr7	110160000	110280000
chr7	97580000	97720000
chr7	18900000	19000000
chr7	4040000	4320000
chr7	144080000	144480000
chr7	112020000	112380000
chr7	133120000	133580000
chr7	28360000	28740000
chr7	87040000	87580000
chr7	62440000	62860000
chr7	144800000	144900000
chr7	65320000	65520000
chr7	24980000	25740000
chr7	81960000	82660000
chr7	122060000	122180000
chr7	81600000	81720000
chr7	143080000	143500000
chr7	46640000	46780000
chr7	120340000	120440000
chr7	28020000	28260000
chr7	89980000	90280000
chr7	67660000	68380000
chr7	87160000	87260000
chr7	95480000	95580000
chr7	66080000	66320000
chr7	139960000	140140000
chr7	121660000	121980000
chr7	75920000	76960000
chr7	34380000	35280000
chr7	117380000	118120000
chr7	99880000	100000000
chr7	117040000	117180000
chr7	12480000	12760000
chr7	140820000	141440000
chr7	89220000	89320000
chr7	58620000	58740000
chr7	109740000	109900000
chr7	87920000	88060000
chr7	135480000	135700000
chr7	114940000	115200000
chr7	63440000	63700000
chr7	12360000	12500000
chr7	116440000	116540000
chr7	6220000	6340000
chr7	113480000	113600000
chr7	46360000	46640000
chr7	99260000	99380000
chr7	87580000	88140000
chr7	88400000	88500000
chr7	139680000	139880000
chr7	129600000	129840000
chr7	124380000	125180000
chr7	28440000	28620000
chr7	116120000	116420000
chr7	62200000	62480000
chr7	87600000	87800000
chr7	114380000	114500000
chr7	113140000	113260000
chr7	141180000	141440000
chr7	121660000	122080000
chr7	86620000	86740000
chr7	92980000	93100000
chr7	119020000	119520000
chr7	67360000	67540000
chr7	16800000	16920000
chr7	91460000	92040000
chr7	140160000	140840000
chr7	143320000	143500000
chr7	56100000	56200000
chr7	93020000	93140000
chr7	49260000	49440000
chr7	110820000	111020000
chr7	126240000	126700000
chr7	64760000	65160000
chr7	127940000	128760000
chr7	101060000	101300000
chr7	123180000	123500000
chr7	117700000	117880000
chr7	92600000	92940000
chr7	141060000	141200000
chr7	30180000	30580000
chr7	26720000	27160000
chr7	78280000	78500000
chr7	3660000	3880000
chr7	116080000	116440000
chr7	45700000	45880000
chr7	140200000	140340000
chr7	110280000	110460000
chr7	118300000	118460000
chr7	35420000	35520000
chr7	129620000	130480000
chr7	121120000	121660000
chr7	75640000	75740000
chr7	90700000	90840000
chr7	91580000	91700000
chr7	96200000	96940000
chr7	98620000	98720000
chr7	28020000	28300000
chr7	100260000	100380000
chr7	30200000	30300000
chr7	117200000	117360000
chr7	67760000	68320000
chr7	48740000	48880000
chr7	87100000	87560000
chr7	3880000	4500000
chr7	111020000	111160000
chr7	51600000	51840000
chr7	125680000	126200000
chr7	141980000	142140000
chr7	114580000	114700000
chr7	83880000	84380000
chr7	74360000	75120000
chr7	40800000	40900000
chr7	12780000	12880000
chr7	126940000	127040000
chr7	87580000	89080000
chr7	28160000	28260000
chr7	66840000	67120000
chr7	67260000	67380000
chr7	79460000	79620000
chr7	30100000	30200000
chr7	132860000	133020000
chr7	43920000	44240000
chr7	141680000	141960000
chr7	74540000	75120000
chr7	113740000	114040000
chr7	64360000	64480000
chr7	35640000	35900000
chr7	72380000	73420000
chr7	131940000	132220000
chr7	83200000	83420000
chr7	116620000	117380000
chr7	68860000	68980000
chr7	126580000	126700000
chr7	92120000	92460000
chr7	93120000	94160000
chr7	114280000	114580000
chr7	27740000	28340000
chr7	144060000	144540000
chr7	36680000	37000000
chr7	50360000	50500000
chr7	109240000	109420000
chr7	97420000	97720000
chr7	56280000	56460000
chr7	132640000	132860000
chr7	89860000	89980000
chr7	113360000	113560000
chr7	45460000	45580000
chr7	140840000	141200000
chr7	67780000	67940000
chr7	112460000	112860000
chr7	50720000	51440000
chr7	119000000	119560000
chr7	123260000	123400000
chr7	126800000	127060000
chr7	56920000	57400000
chr7	18900000	19720000
chr7	131540000	131880000
chr7	136460000	137400000
chr7	3780000	3940000
chr7	49620000	49920000
chr7	110120000	110700000
chr7	119680000	119820000
chr7	100900000	101300000
chr7	57060000	57380000
chr7	79240000	79360000
chr7	89080000	89440000
chr7	43980000	44200000
chr7	135380000	135480000
chr7	97480000	97580000
chr7	62500000	62660000
chr7	142520000	142680000
chr7	30580000	31140000
chr7	68180000	68360000
chr7	133200000	133540000
chr7	35280000	35440000
chr7	95580000	95860000
chr7	111240000	111540000
chr7	102100000	102240000
chr7	44260000	44500000
chr7	4540000	4820000
chr7	101900000	102120000
chr7	43220000	43580000
chr7	110060000	111040000
chr7	29860000	30180000
chr7	4020000	4280000
chr7	102780000	102880000
chr7	80340000	80620000
chr7	141480000	141980000
chr7	99480000	99600000
chr7	46040000	46640000
chr7	107180000	107620000
chr7	68180000	68320000
chr7	30940000	31120000
chr7	25760000	27160000
chr7	68560000	68860000
chr7	91700000	91800000
chr7	68020000	68120000
chr7	68460000	68580000
chr7	119020000	119480000
chr7	130520000	130660000
chr7	45900000	46020000
chr7	63940000	64040000
chr7	71460000	71860000
chr7	28440000	28540000
chr7	29300000	29540000
chr7	67760000	68360000
chr7	114040000	114280000
chr7	141480000	142100000
chr7	129320000	129420000
chr7	35640000	35820000
chr7	80900000	81160000
chr7	144180000	144460000
chr7	64040000	64160000
chr7	50760000	50880000
chr7	142180000	142720000
chr7	46620000	46840000
chr7	46280000	46380000
chr7	121140000	121580000
chr7	89940000	90460000
chr7	124780000	125180000
chr7	37460000	37760000
chr7	96360000	96460000
chr7	88540000	89040000
chr7	54620000	54720000
chr7	49440000	49620000
chr7	91580000	92040000
chr7	112380000	113140000
chr7	102160000	102460000
chr7	24660000	24880000
chr7	141680000	141880000
chr7	43400000	43580000
chr7	44980000	45440000
chr7	60840000	60940000
chr7	82860000	83500000
chr7	107660000	107760000
chr7	87600000	87920000
chr7	98880000	99080000
chr7	120840000	122020000
chr7	35060000	35160000
chr7	128240000	128420000
chr7	67240000	67580000
chr7	48880000	49120000
chr7	6600000	6700000
chr7	130380000	130480000
chr7	89480000	89960000
chr7	86700000	86960000
chr7	96700000	96900000
chr7	81440000	81580000
chr7	94460000	94560000
chr7	110260000	110700000
chr7	99480000	99920000
chr7	122460000	122960000
chr7	36700000	37360000
chr7	128760000	130520000
chr7	128740000	128860000
chr7	89440000	90440000
chr7	143820000	143920000
chr7	82360000	82520000
chr7	63760000	63860000
chr7	129340000	129500000
chr7	46080000	46240000
chr7	142300000	142520000
chr7	62900000	63320000
chr7	48980000	49100000
chr7	123960000	124120000
chr7	35900000	36080000
chr7	123020000	123120000
chr7	118140000	118300000
chr7	141220000	141380000
chr7	119680000	120600000
chr7	67780000	68180000
chr7	110460000	110560000
chr7	78900000	79240000
chr7	43400000	43500000
chr7	51860000	51960000
chr7	110440000	110640000
chr7	90940000	91080000
chr7	116740000	116840000
chr7	6280000	6440000
chr7	92600000	93020000
chr7	75920000	76380000
chr7	135800000	137440000
chr7	109520000	109620000
chr7	144460000	144580000
chr7	101680000	101840000
chr7	83560000	83820000
chr7	121380000	121540000
chr7	45440000	45640000
chr7	78920000	79080000
chr7	126100000	126200000
chr7	3620000	3720000
chr7	116960000	117060000
chr7	99600000	99880000
chr7	34400000	34680000
chr7	58460000	58560000
chr7	57480000	59280000
chr7	19360000	19660000
chr7	128240000	128740000
chr7	143600000	143700000
chr7	141480000	142040000
chr7	100940000	101060000
chr7	88220000	88340000
chr7	5100000	6280000
chr7	65520000	65620000
chr7	79240000	79460000
chr7	116460000	116620000
chr7	30720000	30860000
chr7	51340000	51460000
chr7	134240000	134400000
chr7	80340000	80700000
